{
    "parent": "block/orientable",
    "textures": {
        "top": "craftingislife:blocks/dirt_furnace_top",
        "front": "craftingislife:blocks/dirt_furnace_front_off",
        "side": "craftingislife:blocks/dirt_furnace_top"
    }
}
