{
    "variants": {
        "facing=north": { "model": "craftingislife:lit_soul_sand_furnace" },
        "facing=south": { "model": "craftingislife:lit_soul_sand_furnace", "y": 180 },
        "facing=west":  { "model": "craftingislife:lit_soul_sand_furnace", "y": 270 },
        "facing=east":  { "model": "craftingislife:lit_soul_sand_furnace", "y": 90 }
    }
}
